{
  "content": [
    {"id": "13e31622-edea-493c-8240-9b780c9d6011", "forename": "Jonh011", "surname": "Smith011", "email": "john011.smith011@example.org", "roles": ["citizen"]},
    {"id": "13e31622-edea-493c-8240-9b780c9d6012", "forename": "Jonh012", "surname": "Smith012", "email": "john012.smith012@example.org", "roles": ["citizen"]},
    {"id": "13e31622-edea-493c-8240-9b780c9d6013", "forename": "Jonh013", "surname": "Smith013", "email": "john013.smith013@example.org", "roles": ["citizen"]},
    {"id": "13e31622-edea-493c-8240-9b780c9d6014", "forename": "Jonh014", "surname": "Smith014", "email": "john014.smith014@example.org", "roles": ["citizen"]},
    {"id": "13e31622-edea-493c-8240-9b780c9d6015", "forename": "Jonh015", "surname": "Smith015", "email": "john015.smith015@example.org", "roles": ["citizen"]},
    {"id": "13e31622-edea-493c-8240-9b780c9d6016", "forename": "Jonh016", "surname": "Smith016", "email": "john016.smith016@example.org", "roles": ["citizen"]},
    {"id": "13e31622-edea-493c-8240-9b780c9d6017", "forename": "Jonh017", "surname": "Smith017", "email": "john017.smith017@example.org", "roles": ["citizen"]},
    {"id": "13e31622-edea-493c-8240-9b780c9d6018", "forename": "Jonh018", "surname": "Smith018", "email": "john018.smith018@example.org", "roles": ["citizen"]},
    {"id": "13e31622-edea-493c-8240-9b780c9d6019", "forename": "Jonh019", "surname": "Smith019", "email": "john019.smith019@example.org", "roles": ["citizen"]},
    {"id": "13e31622-edea-493c-8240-9b780c9d6020", "forename": "Jonh020", "surname": "Smith020", "email": "john020.smith020@example.org", "roles": ["citizen"]}
  ],
  "pageable": {
    "sort": {
      "sorted":false,
      "unsorted": true,
      "empty": true
    },
    "pageNumber": 1,
    "pageSize": 10,
    "offset": 10
  },
  "totalPages": 2,
  "totalElements": 25,
  "last": false
}
