{
  "content": [
    {"id": "13e31622-edea-493c-8240-9b780c9d6001", "forename": "Jonh001", "surname": "Smith001", "email": "john001.smith001@example.org", "roles": ["citizen","tribunal-caseworker"]},
    {"id": "13e31622-edea-493c-8240-9b780c9d6002", "forename": "Jonh002", "surname": "Smith002", "email": "john002.smith002@example.org", "roles": ["citizen","tribunal-caseworker"]},
    {"id": "13e31622-edea-493c-8240-9b780c9d6003", "forename": "Jonh003", "surname": "Smith003", "email": "john003.smith003@example.org", "roles": ["citizen"]},
    {"id": "13e31622-edea-493c-8240-9b780c9d6004", "forename": "Jonh004", "surname": "Smith004", "email": "john004.smith004@example.org", "roles": []},
    {"id": "13e31622-edea-493c-8240-9b780c9d6005", "forename": "Jonh005", "surname": "Smith005", "email": "john005.smith005@example.org", "roles": []},
    {"id": "13e31622-edea-493c-8240-9b780c9d6006", "forename": "Jonh006", "surname": "Smith006", "email": "john006.smith006@example.org", "roles": []},
    {"id": "13e31622-edea-493c-8240-9b780c9d6007", "forename": "Jonh007", "surname": "Smith007", "email": "john007.smith007@example.org", "roles": []},
    {"id": "13e31622-edea-493c-8240-9b780c9d6008", "forename": "Jonh008", "surname": "Smith008", "email": "john008.smith008@example.org", "roles": []},
    {"id": "13e31622-edea-493c-8240-9b780c9d6009", "forename": "Jonh009", "surname": "Smith009", "email": "john009.smith009@example.org", "roles": []},
    {"id": "13e31622-edea-493c-8240-9b780c9d6010", "forename": "Jonh010", "surname": "Smith010", "email": "john010.smith010@example.org", "roles": ["citizen","tribunal-caseworker"]}
  ],
  "pageable": {
    "sort": {
      "sorted":false,
      "unsorted": true,
      "empty": true
    },
    "pageNumber": 0,
    "pageSize": 10,
    "offset": 0
  },
  "totalPages": 2,
  "totalElements": 20,
  "last": false
}
